division,region,tag,timezone
NSW,"Batemans Bay",region_nsw_batemans_bay,Australia/Sydney
NSW,"Broken Hill",region_nsw_broken_hill,Australia/Broken_Hill
NSW,"Central Coast",region_nsw_central_coast,Australia/Sydney
NSW,"Coffs Harbour",region_nsw_coffs_harbour,Australia/Sydney
QLD,"Gold Coast",region_qld_gold_coast,Australia/Brisbane
WA,"Mandurah, Bunbury, Albany, Regional WA",region_wa_mandurah,
NSW,"Northern NSW",region_nsw_northern,Australia/Sydney
SA,"Port Augusta",region_sa_port_augusta,Australia/Adelaide
SA,"Port Lincoln",region_sa_port_lincoln,Australia/Adelaide
SA,"Port Pirie",region_sa_port_pirie,Australia/Adelaide
NSW,"Regional NSW",region_nsw_regional,Australia/Sydney
NT,"Regional NT",region_nt_regional,Australia/Darwin
QLD,"Regional QLD",region_qld_regional,Australia/Brisbane
SA,"Regional SA",region_sa_regional,Australia/Adelaide
TAS,"Regional TAS",region_tas_regional,Australia/Hobart
VIC,"Regional VIC",region_vic_regional,Australia/Hobart
WA,"Regional WA",region_wa_regional,Australia/Perth
SA,"South Australia",region_sa_regional,Australia/Adelaide
NSW,"South Coast",region_nsw_south_coast,Australia/Sydney
SA,"South East SA",region_sa_south_east,Australia/Adelaide
NSW,"Southern NSW",region_nsw_southern,Australia/Sydney
SA,"Spencer Gulf",region_sa_spencer_gulf,Australia/Adelaide
QLD,"Sunshine Coast",region_qld_sunshine_coast,Australia/Brisbane
NSW,"Taree/Port Macquarie",region_nsw_taree,Australia/Sydney
NSW,"Wagga Wagga",region_nsw_wagga,Australia/Sydney
QLD,"Wide Bay",region_wld_wide_bay,Australia/Brisbane
VIC,Albury/Wodonga,region_vic_albury,Australia/Hobart
NT,Darwin,region_nt_darwin,Australia/Darwin
NSW,Griffith,region_nsw_griffith,Australia/Sydney
NSW,Lismore,region_nsw_lismore,Australia/Sydney
VIC,Mildura,region_vic_mildura,Australia/Hobart
VIC,Mildura/Sunraysia,region_vic_mildura_sunraysia,Australia/Hobart
NSW,Orange,region_nsw_orange,Australia/Sydney
NSW,Orange/Dubbo,region_nsw_orange_dubbo,Australia/Sydney
SA,Riverland,region_sa_riverland,Australia/Adelaide
ACT,Canberra,region_act_canberra,Australia/Sydney
NSW,Newcastle,region_nsw_newcastle,Australia/Sydney
NSW,Sydney,region_nsw_sydney,Australia/Sydney
NSW,Tamworth,region_nsw_tamworth,Australia/Sydney
NSW,Wollongong,region_nsw_wollongong,Australia/Sydney
QLD,Brisbane,region_qld_brisbane,Australia/Brisbane
QLD,Cairns,region_qld_cairns,Australia/Brisbane
QLD,Mackay,region_qld_mackay,Australia/Brisbane
QLD,Rockhampton,region_qld_rockhampton,Australia/Brisbane
QLD,Toowoomba,region_qld_toowoomba,Australia/Brisbane
QLD,Townsville,region_qld_townsville,Australia/Brisbane
SA,Adelaide,region_sa_adelaide,Australia/Adelaide
TAS,Hobart,region_tas_hobart,Australia/Hobart
TAS,Launceston,region_tas_launceston,Australia/Hobart
VIC,Albury,region_vic_albury,Australia/Melbourne
VIC,Ballarat,region_vic_ballarat,Australia/Melbourne
VIC,Bendigo,region_vic_bendigo,Australia/Melbourne
VIC,Gippsland,region_vic_gippsland,Australia/Melbourne
VIC,Melbourne,region_vic_melbourne,Australia/Melbourne
VIC,Shepparton,region_vic_shepparton,Australia/Melbourne
WA,Perth,region_wa_perth,Australia/Perth
